…
bmi(mass = 80, height = 1.80)
#> [1] 24.69136
library(dplyr)
#> 
#> Attaching package: 'dplyr'
#> The following objects are masked from 'package:stats':
#> 
#>     filter, lag
#> The following objects are masked from 'package:base':
#> 
#>     intersect, setdiff, setequal, union
data("data_weight")
data_weight %>%
  mutate(bmi = bmi(mass = mass, height = height))
#> # A tibble: 87 × 4
#>    name               height  mass   bmi
#>    <chr>               <dbl> <dbl> <dbl>
#>  1 Luke Skywalker       1.72    77  26.0
#>  2 C-3PO                1.67    75  26.9
#>  3 R2-D2                0.96    32  34.7
#>  4 Darth Vader          2.02   136  33.3
#>  5 Leia Organa          1.5     49  21.8
#>  6 Owen Lars            1.78   120  37.9
#>  7 Beru Whitesun lars   1.65    75  27.5
#>  8 R5-D4                0.97    32  34.0
#>  9 Biggs Darklighter    1.83    84  25.1
#> 10 Obi-Wan Kenobi       1.82    77  23.2
#> # … with 77 more rows
```
